# This file uses centimeters as units for non-parametric coordinates.

g default
v -6895.376709 0.000000 3868.320312
v -4169.437256 0.000000 3868.320312
v -6895.376709 0.000000 2470.871338
v 6895.376709 0.000000 3868.320312
v 6895.376709 0.000000 2470.871338
v -6895.376709 0.000000 -3868.320312
v -4169.437256 0.000000 -3868.320312
v -6895.376709 0.000000 -2512.087402
v 6895.376709 0.000000 -2512.087402
v 6895.376709 0.000000 -3868.320312
v -3919.801025 0.000000 3868.320312
v -3663.324707 0.000000 3868.320312
v -3919.801025 0.000000 -3868.320312
v -3663.324707 0.000000 -3868.320312
v 4005.699463 0.000000 3868.320312
v 4005.699463 0.000000 -3868.320312
v 6895.376709 0.000000 397.231628
v 6895.376709 0.000000 293.930298
v -6895.376709 0.000000 397.231628
v -6895.376709 0.000000 293.930298
v 2511.737061 0.000000 -3868.320312
v 3645.691895 0.000000 -3868.320312
v 2511.737061 0.000000 3868.320312
v 3645.691895 0.000000 3868.320312
v -6895.376709 0.000000 2353.180420
v 6895.376709 0.000000 2353.180420
v -3140.183350 0.000000 3868.320312
v -2930.256836 0.000000 3868.320312
v -3140.183350 0.000000 -3868.320312
v -2930.256836 0.000000 -3868.320312
v -2685.577881 0.000000 3868.320312
v -2685.577881 0.000000 -3868.320312
v 6895.376709 0.000000 2102.765137
v -6895.376709 0.000000 2102.765137
v 6895.376709 0.000000 829.027222
v 6895.376709 0.000000 576.435730
v -6895.376709 0.000000 829.027222
v -6895.376709 0.000000 576.435730
v 6895.376709 0.000000 -2395.099609
v -6895.376709 0.000000 -2395.099609
v 3899.164795 0.000000 -3868.320312
v 3899.164795 0.000000 3868.320312
v -6895.376709 0.000000 61.435005
v 6895.376709 0.000000 61.435005
v 835.503418 0.000000 3868.320312
v 1429.785645 0.000000 3868.320312
v 835.503418 0.000000 -3868.320312
v 1429.785645 0.000000 -3868.320312
v 2110.733887 0.000000 3868.320312
v 2397.304688 0.000000 3868.320312
v 2110.733887 0.000000 -3868.320312
v 2397.304688 0.000000 -3868.320312
v 6895.376709 0.000000 -455.695435
v 6895.376709 0.000000 -745.837952
v -6895.376709 0.000000 -455.695435
v -6895.376709 0.000000 -745.837952
v -465.778229 0.000000 -3868.320312
v -27.462931 0.000000 -3868.320312
v -465.778229 0.000000 3868.320312
v -27.462931 0.000000 3868.320312
v 587.461060 0.000000 3868.320312
v 587.461060 0.000000 -3868.320312
v -1851.668213 0.000000 3868.320312
v -1602.160767 0.000000 3868.320312
v -1851.668213 0.000000 -3868.320312
v -1602.160767 0.000000 -3868.320312
v -694.192444 0.000000 3868.320312
v -694.192444 0.000000 -3868.320312
v 6895.376709 0.000000 -1250.545166
v -6895.376709 0.000000 -1250.545166
v 6895.376709 0.000000 -2148.500488
v -6895.376709 0.000000 -2148.500488
v 226.318665 0.000000 -3868.320312
v 226.318665 0.000000 3868.320312
v 1684.686768 0.000000 -3868.320312
v 1684.686768 0.000000 3868.320312
v -6895.376709 0.000000 -1494.966675
v 6895.376709 0.000000 -1494.966675
v -2619.892578 0.000000 3868.320312
v -2529.614990 0.000000 3868.320312
v -2261.223389 0.000000 3868.320312
v -2080.387939 0.000000 3868.320312
v -1995.973999 0.000000 1851.824951
v -3300.924805 0.000000 1851.824951
v -3300.924805 0.000000 1182.844727
v 3300.924805 0.000000 1182.844727
v 3300.924805 0.000000 1851.824951
v -3300.924805 0.000000 -1851.824951
v -1995.973999 0.000000 -1851.824951
v -3300.924805 0.000000 -1202.574829
v 3300.924805 0.000000 -1851.824951
v 3300.924805 0.000000 -1202.574829
v -1753.690430 0.000000 1851.824951
v -1876.469971 0.000000 1851.824951
v -1876.469971 0.000000 -1851.824951
v -1753.690430 0.000000 -1851.824951
v 1917.591431 0.000000 1851.824951
v 1917.591431 0.000000 -1851.824951
v 3300.924805 0.000000 140.709000
v 3300.924805 0.000000 190.160950
v -3300.924805 0.000000 190.160950
v -3300.924805 0.000000 140.709000
v 1202.407837 0.000000 -1851.824951
v 1745.248901 0.000000 -1851.824951
v 1745.248901 0.000000 1851.824951
v 1202.407837 0.000000 1851.824951
v -3300.924805 0.000000 1126.504028
v 3300.924805 0.000000 1126.504028
v -1402.759399 0.000000 1851.824951
v -1503.254150 0.000000 1851.824951
v -1503.254150 0.000000 -1851.824951
v -1402.759399 0.000000 -1851.824951
v -1285.627808 0.000000 1851.824951
v -1285.627808 0.000000 -1851.824951
v 3300.925049 0.000000 1006.626160
v -3300.924805 0.000000 1006.626160
v 3300.924805 0.000000 275.948730
v 3300.924805 0.000000 396.868347
v -3300.924805 0.000000 396.868347
v -3300.924805 0.000000 275.948730
v 3300.924805 0.000000 -1146.571899
v -3300.924805 0.000000 -1146.571899
v 1866.590820 0.000000 -1851.824951
v 1866.590820 0.000000 1851.824951
v -3300.924805 0.000000 29.409899
v 3300.924805 0.000000 29.409899
v 684.460815 0.000000 1851.824951
v 399.968414 0.000000 1851.824951
v 399.968414 0.000000 -1851.824951
v 684.460815 0.000000 -1851.824951
v 1147.627441 0.000000 1851.824951
v 1010.441223 0.000000 1851.824951
v 1010.441223 0.000000 -1851.824951
v 1147.627441 0.000000 -1851.824951
v 3300.924805 0.000000 -357.044159
v 3300.924805 0.000000 -218.148499
v -3300.924805 0.000000 -218.148499
v -3300.924805 0.000000 -357.044159
v -222.975159 0.000000 -1851.824951
v -13.146864 0.000000 -1851.824951
v -13.146864 0.000000 1851.824951
v -222.975159 0.000000 1851.824951
v 281.226746 0.000000 1851.824951
v 281.226746 0.000000 -1851.824951
v -766.979431 0.000000 1851.824951
v -886.422241 0.000000 1851.824951
v -886.422241 0.000000 -1851.824951
v -766.979431 0.000000 -1851.824951
v -332.320618 0.000000 1851.824951
v -332.320618 0.000000 -1851.824951
v 3300.924805 0.000000 -598.655518
v -3300.924805 0.000000 -598.655518
v 3300.924805 0.000000 -1028.520264
v -3300.924805 0.000000 -1028.520264
v 108.342308 0.000000 -1851.824951
v 108.342308 0.000000 1851.824951
v 806.486023 0.000000 -1851.824951
v 806.486023 0.000000 1851.824951
v -3300.924805 0.000000 -715.664001
v 3300.924805 0.000000 -715.664001
v -1254.183105 0.000000 1851.824951
v -1082.482910 0.000000 1851.824951
v -1210.966431 0.000000 1851.824951
v -995.914307 0.000000 1851.824951
vt 0.643607 0.415458
vt 0.737488 0.415449
vt 0.996094 0.560497
vt 0.799984 0.560515
vt 0.737484 0.367321
vt 0.996084 0.459961
vt 0.262532 0.367364
vt 0.262537 0.415492
vt 0.003959 0.560588
vt 0.003949 0.460053
vt 0.737464 0.149001
vt 0.643582 0.149010
vt 0.799933 0.003924
vt 0.996043 0.003906
vt 0.737468 0.195709
vt 0.996052 0.101477
vt 0.262512 0.149044
vt 0.262517 0.195752
vt 0.003915 0.101567
vt 0.003906 0.003996
vt 0.626177 0.415459
vt 0.635009 0.415458
vt 0.782025 0.560516
vt 0.763573 0.560518
vt 0.634985 0.149010
vt 0.626152 0.149011
vt 0.763522 0.003927
vt 0.781973 0.003925
vt 0.362057 0.415483
vt 0.211848 0.560568
vt 0.362033 0.149035
vt 0.211796 0.003978
vt 0.262526 0.292391
vt 0.262526 0.295948
vt 0.003934 0.310870
vt 0.003933 0.303438
vt 0.737477 0.295905
vt 0.737477 0.292348
vt 0.996071 0.303348
vt 0.996071 0.310779
vt 0.413484 0.149030
vt 0.374431 0.149034
vt 0.237696 0.003975
vt 0.319275 0.003968
vt 0.374456 0.415482
vt 0.413508 0.415478
vt 0.319326 0.560558
vt 0.237747 0.560565
vt 0.737483 0.363268
vt 0.996084 0.451494
vt 0.262531 0.363310
vt 0.003948 0.451585
vt 0.600929 0.415462
vt 0.608160 0.415461
vt 0.725937 0.560521
vt 0.710835 0.560522
vt 0.608136 0.149013
vt 0.600906 0.149013
vt 0.710783 0.003932
vt 0.725887 0.003931
vt 0.592503 0.415462
vt 0.693232 0.560524
vt 0.592479 0.149014
vt 0.693181 0.003934
vt 0.262529 0.354687
vt 0.003946 0.433570
vt 0.737483 0.354643
vt 0.996082 0.433479
vt 0.262527 0.302120
vt 0.262527 0.310820
vt 0.003937 0.341934
vt 0.003935 0.323762
vt 0.737479 0.310777
vt 0.737478 0.302077
vt 0.996072 0.323671
vt 0.996074 0.341843
vt 0.262517 0.199781
vt 0.003916 0.109983
vt 0.737468 0.199738
vt 0.996053 0.109893
vt 0.365702 0.149035
vt 0.219461 0.003977
vt 0.365726 0.415483
vt 0.219512 0.560567
vt 0.737476 0.284340
vt 0.996068 0.286621
vt 0.262525 0.284384
vt 0.003932 0.286712
vt 0.450770 0.415475
vt 0.471238 0.415473
vt 0.439918 0.560547
vt 0.397164 0.560551
vt 0.471214 0.149025
vt 0.450747 0.149026
vt 0.397113 0.003961
vt 0.439867 0.003956
vt 0.417449 0.415478
vt 0.427319 0.415477
vt 0.348175 0.560556
vt 0.327559 0.560557
vt 0.427295 0.149029
vt 0.417425 0.149030
vt 0.327508 0.003966
vt 0.348124 0.003965
vt 0.262522 0.256581
vt 0.262523 0.266574
vt 0.003929 0.249509
vt 0.003927 0.228635
vt 0.737474 0.266531
vt 0.737473 0.256538
vt 0.996063 0.228544
vt 0.996066 0.249418
vt 0.516029 0.149021
vt 0.500933 0.149022
vt 0.501951 0.003951
vt 0.533484 0.003948
vt 0.500958 0.415471
vt 0.516053 0.415469
vt 0.533535 0.560539
vt 0.502001 0.560541
vt 0.479781 0.415472
vt 0.457763 0.560545
vt 0.479756 0.149024
vt 0.457712 0.003955
vt 0.555190 0.415465
vt 0.563784 0.415465
vt 0.633238 0.560530
vt 0.615288 0.560531
vt 0.563760 0.149016
vt 0.555166 0.149017
vt 0.615238 0.003940
vt 0.633188 0.003939
vt 0.523920 0.415468
vt 0.549967 0.560537
vt 0.523896 0.149020
vt 0.549916 0.003946
vt 0.262521 0.239200
vt 0.003923 0.192325
vt 0.737472 0.239156
vt 0.996060 0.192234
vt 0.262518 0.208274
vt 0.003917 0.127724
vt 0.737469 0.208231
vt 0.996054 0.127634
vt 0.492194 0.149023
vt 0.483693 0.003953
vt 0.492218 0.415471
vt 0.483744 0.560543
vt 0.441968 0.149027
vt 0.378775 0.003962
vt 0.441992 0.415476
vt 0.378826 0.560553
vt 0.737471 0.230739
vt 0.996059 0.174650
vt 0.262519 0.230782
vt 0.003922 0.174741
vt 0.590241 0.415462
vt 0.688506 0.560525
vt 0.577888 0.415464
vt 0.587132 0.415463
vt 0.682012 0.560525
vt 0.662703 0.560527
vt 0.571660 0.415464
vt 0.649693 0.560528
vn 0.000000 1.000000 0.000000
vn 0.000000 1.000000 0.000000
vn 0.000000 1.000000 0.000000
vn 0.000000 1.000000 0.000000
vn 0.000000 1.000000 0.000000
vn 0.000000 1.000000 0.000000
vn 0.000000 1.000000 0.000000
vn 0.000000 1.000000 0.000000
vn 0.000000 1.000000 0.000000
vn 0.000000 1.000000 0.000000
vn 0.000000 1.000000 0.000000
vn 0.000000 1.000000 0.000000
vn 0.000000 1.000000 0.000000
vn 0.000000 1.000000 0.000000
vn 0.000000 1.000000 0.000000
vn 0.000000 1.000000 0.000000
vn 0.000000 1.000000 0.000000
vn 0.000000 1.000000 0.000000
vn 0.000000 1.000000 0.000000
vn 0.000000 1.000000 0.000000
vn 0.000000 1.000000 0.000000
vn 0.000000 1.000000 0.000000
vn 0.000000 1.000000 0.000000
vn 0.000000 1.000000 0.000000
vn 0.000000 1.000000 0.000000
vn 0.000000 1.000000 0.000000
vn 0.000000 1.000000 0.000000
vn 0.000000 1.000000 0.000000
vn 0.000000 1.000000 0.000000
vn 0.000000 1.000000 0.000000
vn 0.000000 1.000000 0.000000
vn 0.000000 1.000000 0.000000
vn 0.000000 1.000000 0.000000
vn 0.000000 1.000000 0.000000
vn 0.000000 1.000000 0.000000
vn 0.000000 1.000000 0.000000
vn 0.000000 1.000000 0.000000
vn 0.000000 1.000000 0.000000
vn 0.000000 1.000000 0.000000
vn 0.000000 1.000000 0.000000
vn 0.000000 1.000000 0.000000
vn 0.000000 1.000000 0.000000
vn 0.000000 1.000000 0.000000
vn 0.000000 1.000000 0.000000
vn 0.000000 1.000000 0.000000
vn 0.000000 1.000000 0.000000
vn 0.000000 1.000000 0.000000
vn 0.000000 1.000000 0.000000
vn 0.000000 1.000000 0.000000
vn 0.000000 1.000000 0.000000
vn 0.000000 1.000000 0.000000
vn 0.000000 1.000000 0.000000
vn 0.000000 1.000000 0.000000
vn 0.000000 1.000000 0.000000
vn 0.000000 1.000000 0.000000
vn 0.000000 1.000000 0.000000
vn 0.000000 1.000000 0.000000
vn 0.000000 1.000000 0.000000
vn 0.000000 1.000000 0.000000
vn 0.000000 1.000000 0.000000
vn 0.000000 1.000000 0.000000
vn 0.000000 1.000000 0.000000
vn 0.000000 1.000000 0.000000
vn 0.000000 1.000000 0.000000
vn 0.000000 1.000000 0.000000
vn 0.000000 1.000000 0.000000
vn 0.000000 1.000000 0.000000
vn 0.000000 1.000000 0.000000
vn 0.000000 1.000000 0.000000
vn 0.000000 1.000000 0.000000
vn 0.000000 1.000000 0.000000
vn 0.000000 1.000000 0.000000
vn 0.000000 1.000000 0.000000
vn 0.000000 1.000000 0.000000
vn 0.000000 1.000000 0.000000
vn 0.000000 1.000000 0.000000
vn 0.000000 1.000000 0.000000
vn 0.000000 1.000000 0.000000
vn 0.000000 1.000000 0.000000
vn 0.000000 1.000000 0.000000
vn 0.000000 1.000000 -0.000000
vn 0.000000 1.000000 -0.000000
vn 0.000000 1.000000 -0.000000
vn 0.000000 1.000000 -0.000000
vn 0.000000 1.000000 0.000000
vn 0.000000 1.000000 0.000000
vn 0.000000 1.000000 0.000000
vn 0.000000 1.000000 0.000000
vn 0.000000 1.000000 0.000000
vn 0.000000 1.000000 0.000000
vn 0.000000 1.000000 0.000000
vn 0.000000 1.000000 0.000000
vn 0.000000 1.000000 0.000000
vn 0.000000 1.000000 0.000000
vn 0.000000 1.000000 0.000000
vn 0.000000 1.000000 0.000000
vn 0.000000 1.000000 0.000000
vn 0.000000 1.000000 0.000000
vn 0.000000 1.000000 0.000000
vn 0.000000 1.000000 0.000000
vn 0.000000 1.000000 0.000000
vn 0.000000 1.000000 0.000000
vn 0.000000 1.000000 0.000000
vn 0.000000 1.000000 0.000000
vn 0.000000 1.000000 -0.000000
vn 0.000000 1.000000 -0.000000
vn 0.000000 1.000000 -0.000000
vn 0.000000 1.000000 -0.000000
vn 0.000000 1.000000 0.000000
vn 0.000000 1.000000 0.000000
vn 0.000000 1.000000 0.000000
vn 0.000000 1.000000 0.000000
vn 0.000000 1.000000 0.000000
vn 0.000000 1.000000 0.000000
vn 0.000000 1.000000 0.000000
vn 0.000000 1.000000 0.000000
vn 0.000000 1.000000 0.000000
vn 0.000000 1.000000 0.000000
vn 0.000000 1.000000 0.000000
vn 0.000000 1.000000 0.000000
vn 0.000000 1.000000 0.000000
vn 0.000000 1.000000 0.000000
vn 0.000000 1.000000 0.000000
vn 0.000000 1.000000 0.000000
vn 0.000000 1.000000 0.000000
vn 0.000000 1.000000 0.000000
vn 0.000000 1.000000 0.000000
vn 0.000000 1.000000 0.000000
vn 0.000000 1.000000 0.000000
vn 0.000000 1.000000 0.000000
vn 0.000000 1.000000 0.000000
vn 0.000000 1.000000 0.000000
vn 0.000000 1.000000 0.000000
vn 0.000000 1.000000 0.000000
vn 0.000000 1.000000 0.000000
vn 0.000000 1.000000 0.000000
vn 0.000000 1.000000 0.000000
vn 0.000000 1.000000 0.000000
vn 0.000000 1.000000 0.000000
vn 0.000000 1.000000 0.000000
vn 0.000000 1.000000 0.000000
vn 0.000000 1.000000 0.000000
vn 0.000000 1.000000 0.000000
vn 0.000000 1.000000 0.000000
vn 0.000000 1.000000 0.000000
vn 0.000000 1.000000 0.000000
vn 0.000000 1.000000 0.000000
vn 0.000000 1.000000 0.000000
vn 0.000000 1.000000 0.000000
vn 0.000000 1.000000 0.000000
vn 0.000000 1.000000 0.000000
vn 0.000000 1.000000 0.000000
vn 0.000000 1.000000 0.000000
vn 0.000000 1.000000 0.000000
vn 0.000000 1.000000 0.000000
vn 0.000000 1.000000 0.000000
vn 0.000000 1.000000 -0.000000
vn 0.000000 1.000000 -0.000000
vn 0.000000 1.000000 -0.000000
vn 0.000000 1.000000 -0.000000
vn 0.000000 1.000000 0.000000
vn 0.000000 1.000000 0.000000
vn 0.000000 1.000000 0.000000
vn 0.000000 1.000000 0.000000
vn 0.000000 1.000000 -0.000000
vn 0.000000 1.000000 -0.000000
vn 0.000000 1.000000 -0.000000
vn 0.000000 1.000000 -0.000000
vn 0.000000 1.000000 0.000000
vn 0.000000 1.000000 0.000000
vn 0.000000 1.000000 0.000000
vn 0.000000 1.000000 0.000000
vn 0.000000 1.000000 0.000000
vn 0.000000 1.000000 0.000000
vn 0.000000 1.000000 0.000000
vn 0.000000 1.000000 0.000000
vn 0.000000 1.000000 -0.000000
vn 0.000000 1.000000 -0.000000
vn 0.000000 1.000000 -0.000000
vn 0.000000 1.000000 -0.000000
vn 0.000000 1.000000 0.000000
vn 0.000000 1.000000 0.000000
vn 0.000000 1.000000 0.000000
vn 0.000000 1.000000 0.000000
vn 0.000000 1.000000 0.000000
vn 0.000000 1.000000 0.000000
vn 0.000000 1.000000 0.000000
vn 0.000000 1.000000 0.000000
vn 0.000000 1.000000 -0.000000
vn 0.000000 1.000000 -0.000000
vn 0.000000 1.000000 -0.000000
vn 0.000000 1.000000 -0.000000
vn 0.000000 1.000000 0.000000
vn 0.000000 1.000000 0.000000
vn 0.000000 1.000000 0.000000
vn 0.000000 1.000000 0.000000
vn 0.000000 1.000000 0.000000
vn 0.000000 1.000000 0.000000
vn 0.000000 1.000000 0.000000
vn 0.000000 1.000000 0.000000
vn 0.000000 1.000000 0.000000
vn 0.000000 1.000000 0.000000
vn 0.000000 1.000000 0.000000
vn 0.000000 1.000000 0.000000
vn 0.000000 1.000000 -0.000000
vn 0.000000 1.000000 -0.000000
vn 0.000000 1.000000 -0.000000
vn 0.000000 1.000000 -0.000000
vn 0.000000 1.000000 0.000000
vn 0.000000 1.000000 0.000000
vn 0.000000 1.000000 0.000000
vn 0.000000 1.000000 0.000000
vn 0.000000 1.000000 0.000000
vn 0.000000 1.000000 0.000000
vn 0.000000 1.000000 0.000000
vn 0.000000 1.000000 0.000000
vn 0.000000 1.000000 0.000000
vn 0.000000 1.000000 0.000000
vn 0.000000 1.000000 0.000000
vn 0.000000 1.000000 0.000000
vn 0.000000 1.000000 0.000000
vn 0.000000 1.000000 0.000000
vn 0.000000 1.000000 0.000000
vn 0.000000 1.000000 0.000000
vn 0.000000 1.000000 0.000000
vn 0.000000 1.000000 0.000000
vn 0.000000 1.000000 0.000000
vn 0.000000 1.000000 0.000000
vn 0.000000 1.000000 -0.000000
vn 0.000000 1.000000 -0.000000
vn 0.000000 1.000000 -0.000000
vn 0.000000 1.000000 -0.000000
vn 0.000000 1.000000 0.000000
vn 0.000000 1.000000 0.000000
vn 0.000000 1.000000 0.000000
vn 0.000000 1.000000 0.000000
vn 0.000000 1.000000 0.000000
vn 0.000000 1.000000 0.000000
vn 0.000000 1.000000 0.000000
vn 0.000000 1.000000 0.000000
vn 0.000000 1.000000 0.000000
vn 0.000000 1.000000 0.000000
vn 0.000000 1.000000 0.000000
vn 0.000000 1.000000 0.000000
vn 0.000000 1.000000 0.000000
vn 0.000000 1.000000 0.000000
vn 0.000000 1.000000 0.000000
vn 0.000000 1.000000 0.000000
vn 0.000000 1.000000 -0.000000
vn 0.000000 1.000000 -0.000000
vn 0.000000 1.000000 -0.000000
vn 0.000000 1.000000 -0.000000
vn 0.000000 1.000000 0.000000
vn 0.000000 1.000000 0.000000
vn 0.000000 1.000000 0.000000
vn 0.000000 1.000000 0.000000
vn 0.000000 1.000000 0.000000
vn 0.000000 1.000000 0.000000
vn 0.000000 1.000000 0.000000
vn 0.000000 1.000000 0.000000
vn 0.000000 1.000000 0.000000
vn 0.000000 1.000000 0.000000
vn 0.000000 1.000000 0.000000
vn 0.000000 1.000000 0.000000
vn 0.000000 1.000000 0.000000
vn 0.000000 1.000000 0.000000
vn 0.000000 1.000000 0.000000
vn 0.000000 1.000000 0.000000
vn 0.000000 1.000000 0.000000
vn 0.000000 1.000000 0.000000
vn 0.000000 1.000000 0.000000
vn 0.000000 1.000000 0.000000
vn 0.000000 1.000000 0.000000
vn 0.000000 1.000000 0.000000
vn 0.000000 1.000000 0.000000
vn 0.000000 1.000000 0.000000
vn 0.000000 1.000000 0.000000
vn 0.000000 1.000000 0.000000
vn 0.000000 1.000000 0.000000
vn 0.000000 1.000000 0.000000
vn 0.000000 1.000000 0.000000
vn 0.000000 1.000000 0.000000
vn 0.000000 1.000000 0.000000
vn 0.000000 1.000000 0.000000
vn 0.000000 1.000000 0.000000
vn 0.000000 1.000000 0.000000
vn 0.000000 1.000000 0.000000
vn 0.000000 1.000000 0.000000
vn 0.000000 1.000000 -0.000000
vn 0.000000 1.000000 -0.000000
vn 0.000000 1.000000 -0.000000
vn 0.000000 1.000000 -0.000000
vn 0.000000 1.000000 0.000000
vn 0.000000 1.000000 0.000000
vn 0.000000 1.000000 0.000000
vn 0.000000 1.000000 0.000000
vn 0.000000 1.000000 -0.000000
vn 0.000000 1.000000 -0.000000
vn 0.000000 1.000000 -0.000000
vn 0.000000 1.000000 -0.000000
vn 0.000000 1.000000 0.000000
vn 0.000000 1.000000 0.000000
vn 0.000000 1.000000 0.000000
vn 0.000000 1.000000 0.000000
vn 0.000000 1.000000 0.000000
vn 0.000000 1.000000 0.000000
vn 0.000000 1.000000 0.000000
vn 0.000000 1.000000 0.000000
vn 0.000000 1.000000 0.000000
vn 0.000000 1.000000 0.000000
vn 0.000000 1.000000 0.000000
vn 0.000000 1.000000 0.000000
vn 0.000000 1.000000 0.000000
vn 0.000000 1.000000 0.000000
vn 0.000000 1.000000 0.000000
vn 0.000000 1.000000 0.000000
vn 0.000000 1.000000 0.000000
vn 0.000000 1.000000 0.000000
vn 0.000000 1.000000 0.000000
vn 0.000000 1.000000 0.000000
vn 0.000000 1.000000 0.000000
vn 0.000000 1.000000 0.000000
vn 0.000000 1.000000 0.000000
vn 0.000000 1.000000 0.000000
vn 0.000000 1.000000 -0.000000
vn 0.000000 1.000000 -0.000000
vn 0.000000 1.000000 -0.000000
vn 0.000000 1.000000 -0.000000
s off
g polySurface786 Map1Fix
f 83/1/1 84/2/2 1/3/3 2/4/4
f 84/2/5 85/5/6 3/6/7 1/3/8
f 86/7/9 87/8/10 4/9/11 5/10/12
f 88/11/13 89/12/14 7/13/15 6/14/16
f 90/15/17 88/11/18 6/14/19 8/16/20
f 91/17/21 92/18/22 9/19/23 10/20/24
f 93/21/25 94/22/26 11/23/27 12/24/28
f 95/25/29 96/26/30 14/27/31 13/28/32
f 87/8/33 97/29/34 15/30/35 4/9/36
f 98/31/37 91/17/38 10/20/39 16/32/40
f 99/33/41 100/34/42 17/35/43 18/36/44
f 101/37/45 102/38/46 20/39/47 19/40/48
f 103/41/49 104/42/50 22/43/51 21/44/52
f 105/45/53 106/46/54 23/47/55 24/48/56
f 85/5/57 107/49/58 25/50/59 3/6/60
f 108/51/61 86/7/62 5/10/63 26/52/64
f 109/53/65 110/54/66 27/55/67 28/56/68
f 111/57/69 112/58/70 30/59/71 29/60/72
f 113/61/73 109/53/74 28/56/75 31/62/76
f 112/58/77 114/63/78 32/64/79 30/59/80
f 115/65/81 108/51/82 26/52/83 33/66/84
f 107/49/85 116/67/86 34/68/87 25/50/88
f 117/69/89 118/70/90 35/71/91 36/72/92
f 119/73/93 120/74/94 38/75/95 37/76/96
f 92/18/97 121/77/98 39/78/99 9/19/100
f 122/79/101 90/15/102 8/16/103 40/80/104
f 123/81/105 98/31/106 16/32/107 41/82/108
f 97/29/109 124/83/110 42/84/111 15/30/112
f 102/38/113 125/85/114 43/86/115 20/39/116
f 126/87/117 99/33/118 18/36/119 44/88/120
f 127/89/121 128/90/122 45/91/123 46/92/124
f 129/93/125 130/94/126 48/95/127 47/96/128
f 100/34/129 117/69/130 36/72/131 17/35/132
f 120/74/133 101/37/134 19/40/135 38/75/136
f 131/97/137 132/98/138 49/99/139 50/100/140
f 133/101/141 134/102/142 52/103/143 51/104/144
f 135/105/145 136/106/146 53/107/147 54/108/148
f 137/109/149 138/110/150 56/111/151 55/112/152
f 139/113/153 140/114/154 58/115/155 57/116/156
f 141/117/157 142/118/158 59/119/159 60/120/160
f 128/90/161 143/121/162 61/122/163 45/91/164
f 144/123/165 129/93/166 47/96/167 62/124/168
f 145/125/169 146/126/170 63/127/171 64/128/172
f 147/129/173 148/130/174 66/131/175 65/132/176
f 149/133/177 145/125/178 64/128/179 67/134/180
f 148/130/181 150/135/182 68/136/183 66/131/184
f 142/118/185 149/133/186 67/134/187 59/119/188
f 150/135/189 139/113/190 57/116/191 68/136/192
f 114/63/193 147/129/194 65/132/195 32/64/196
f 151/137/197 135/105/198 54/108/199 69/138/200
f 138/110/201 152/139/202 70/140/203 56/111/204
f 110/54/205 93/21/206 12/24/207 27/55/208
f 96/26/209 111/57/210 29/60/211 14/27/212
f 121/77/213 153/141/214 71/142/215 39/78/216
f 154/143/217 122/79/218 40/80/219 72/144/220
f 106/46/221 131/97/222 50/100/223 23/47/224
f 134/102/225 103/41/226 21/44/227 52/103/228
f 155/145/229 144/123/230 62/124/231 73/146/232
f 143/121/233 156/147/234 74/148/235 61/122/236
f 130/94/237 157/149/238 75/150/239 48/95/240
f 158/151/241 127/89/242 46/92/243 76/152/244
f 157/149/245 133/101/246 51/104/247 75/150/248
f 132/98/249 158/151/250 76/152/251 49/99/252
f 159/153/253 154/143/254 72/144/255 77/154/256
f 153/141/257 160/155/258 78/156/259 71/142/260
f 152/139/261 159/153/262 77/154/263 70/140/264
f 160/155/265 151/137/266 69/138/267 78/156/268
f 125/85/269 137/109/270 55/112/271 43/86/272
f 136/106/273 126/87/274 44/88/275 53/107/276
f 104/42/277 123/81/278 41/82/279 22/43/280
f 124/83/281 105/45/282 24/48/283 42/84/284
f 89/12/285 95/25/286 13/28/287 7/13/288
f 94/22/289 83/1/290 2/4/291 11/23/292
f 156/147/293 141/117/294 60/120/295 74/148/296
f 140/114/297 155/145/298 73/146/299 58/115/300
f 118/70/301 115/65/302 33/66/303 35/71/304
f 116/67/305 119/73/306 37/76/307 34/68/308
f 161/157/309 113/61/310 31/62/311 79/158/312
f 162/159/313 163/160/314 80/161/315 81/162/316
f 164/163/317 162/159/318 81/162/319 82/164/320
f 146/126/321 164/163/322 82/164/323 63/127/324
f 163/160/325 161/157/326 79/158/327 80/161/328
